E	13.105
T	10.468
A	8.151
O	7.995
N	7.098
R	6.832
I	6.345
S	6.101
H	5.259
D	3.788
L	3.389
F	2.924
C	2.758
M	2.536
U	2.459
G	1.994
Y	1.982
P	1.982
W	1.539
B	1.440
V	0.919
K	0.420
X	0.166
J	0.132
Q	0.121
Z	0.077
